<?xml version="1.0" encoding="UTF-8" standalone="no"?>
<!-- Created with Inkscape (http://www.inkscape.org/) -->

<svg
   xmlns:dc="http://purl.org/dc/elements/1.1/"
   xmlns:cc="http://creativecommons.org/ns#"
   xmlns:rdf="http://www.w3.org/1999/02/22-rdf-syntax-ns#"
   xmlns:svg="http://www.w3.org/2000/svg"
   xmlns="http://www.w3.org/2000/svg"
   xmlns:sodipodi="http://sodipodi.sourceforge.net/DTD/sodipodi-0.dtd"
   xmlns:inkscape="http://www.inkscape.org/namespaces/inkscape"
   width="114"
   height="114"
   id="svg2"
   version="1.1"
   inkscape:version="0.48.5 r10040"
   sodipodi:docname="Новый документ 1">
  <defs
     id="defs4" />
  <sodipodi:namedview
     id="base"
     pagecolor="#ffffff"
     bordercolor="#666666"
     borderopacity="1.0"
     inkscape:pageopacity="0.0"
     inkscape:pageshadow="2"
     inkscape:zoom="3.959798"
     inkscape:cx="39.48499"
     inkscape:cy="70.342395"
     inkscape:document-units="px"
     inkscape:current-layer="layer1"
     showgrid="false"
     inkscape:window-width="1920"
     inkscape:window-height="1033"
     inkscape:window-x="-4"
     inkscape:window-y="-4"
     inkscape:window-maximized="1" />
  <metadata
     id="metadata7">
    <rdf:RDF>
      <cc:Work
         rdf:about="">
        <dc:format>image/svg+xml</dc:format>
        <dc:type
           rdf:resource="http://purl.org/dc/dcmitype/StillImage" />
        <dc:title></dc:title>
      </cc:Work>
    </rdf:RDF>
  </metadata>
  <g
     inkscape:label="Layer 1"
     inkscape:groupmode="layer"
     id="layer1"
     transform="translate(0,-938.36218)">
    <g
       id="g4399"
       transform="translate(-280,623.14285)">
      <rect
         rx="5"
         ry="5"
         y="315.21933"
         x="280"
         height="114"
         width="114"
         id="rect2985"
         style="fill:#b37235;fill-opacity:1;stroke:none" />
      <path
         transform="matrix(1.8561797,0,0,1.8561797,21.117986,-294.09225)"
         d="m 186.07143,358.96933 c 0,8.77738 -7.11547,15.89286 -15.89286,15.89286 -8.77738,0 -15.89285,-7.11548 -15.89285,-15.89286 0,-8.77738 7.11547,-15.89286 15.89285,-15.89286 8.77739,0 15.89286,7.11548 15.89286,15.89286 z"
         sodipodi:ry="15.892858"
         sodipodi:rx="15.892858"
         sodipodi:cy="358.96933"
         sodipodi:cx="170.17857"
         id="path3759"
         style="fill:#9b4d05;fill-opacity:1;stroke:none"
         sodipodi:type="arc" />
      <path
         transform="matrix(1.6044943,0,0,1.6044943,63.949449,-203.74491)"
         d="m 186.07143,358.96933 c 0,8.77738 -7.11547,15.89286 -15.89286,15.89286 -8.77738,0 -15.89285,-7.11548 -15.89285,-15.89286 0,-8.77738 7.11547,-15.89286 15.89285,-15.89286 8.77739,0 15.89286,7.11548 15.89286,15.89286 z"
         sodipodi:ry="15.892858"
         sodipodi:rx="15.892858"
         sodipodi:cy="358.96933"
         sodipodi:cx="170.17857"
         id="path3759-1"
         style="fill:#ef7a0f;fill-opacity:1;stroke:none"
         sodipodi:type="arc" />
      <path
         transform="matrix(1.1640449,0,0,1.1640449,138.9045,-45.637088)"
         d="m 186.07143,358.96933 c 0,8.77738 -7.11547,15.89286 -15.89286,15.89286 -8.77738,0 -15.89285,-7.11548 -15.89285,-15.89286 0,-8.77738 7.11547,-15.89286 15.89285,-15.89286 8.77739,0 15.89286,7.11548 15.89286,15.89286 z"
         sodipodi:ry="15.892858"
         sodipodi:rx="15.892858"
         sodipodi:cy="358.96933"
         sodipodi:cx="170.17857"
         id="path3759-1-7"
         style="fill:#f79d49;fill-opacity:1;stroke:none"
         sodipodi:type="arc" />
      <g
         transform="matrix(0.56427602,0,0,0.56427602,309.89842,334.78807)"
         id="g8">
        <path
           d="m 47.9493,62.9737 c 26.0446,0 39.7834,-19.6812 35.9218,-8.232 -3.826,11.3435 -10.9939,37.9492 -35.9218,37.9492 -24.928,0 -32.2189,-28.1023 -36.8162,-39.0589 -4.8899,-11.6538 10.5399,9.3417 36.8162,9.3417 z"
           style="fill:#9b4d05;fill-rule:evenodd"
           id="path10"
           inkscape:connector-curvature="0" />
        <path
           d="m 47.5001,6.9069 c 24.958,0 45.1908,17.2057 45.1908,32.3013 0,15.0957 -20.2325,27.3335 -45.1908,27.3335 -24.958,0 -45.1905,-12.2378 -45.1905,-27.3335 0,-15.0956 20.2325,-32.3013 45.1905,-32.3013 z"
           style="fill:#f7b578;fill-rule:evenodd"
           id="path12"
           inkscape:connector-curvature="0" />
        <path
           d="M 47.5,2.3094 A 22.0969,15.0398 0 0 1 69.597,17.3491 22.0969,15.0398 0 1 1 47.5,2.3094 z"
           style="fill:#ef7a0f;fill-rule:evenodd"
           id="path14"
           inkscape:connector-curvature="0" />
      </g>
    </g>
  </g>
</svg>
