<?xml version="1.0" encoding="UTF-8" standalone="no"?>
<!-- Created with Inkscape (http://www.inkscape.org/) -->

<svg
   xmlns:dc="http://purl.org/dc/elements/1.1/"
   xmlns:cc="http://creativecommons.org/ns#"
   xmlns:rdf="http://www.w3.org/1999/02/22-rdf-syntax-ns#"
   xmlns:svg="http://www.w3.org/2000/svg"
   xmlns="http://www.w3.org/2000/svg"
   xmlns:sodipodi="http://sodipodi.sourceforge.net/DTD/sodipodi-0.dtd"
   xmlns:inkscape="http://www.inkscape.org/namespaces/inkscape"
   width="56"
   height="114"
   id="svg3837"
   version="1.1"
   inkscape:version="0.48.5 r10040"
   sodipodi:docname="bone_06_01.svg">
  <defs
     id="defs3839" />
  <sodipodi:namedview
     id="base"
     pagecolor="#ffffff"
     bordercolor="#666666"
     borderopacity="1.0"
     inkscape:pageopacity="0.0"
     inkscape:pageshadow="2"
     inkscape:zoom="5.6"
     inkscape:cx="-10.149084"
     inkscape:cy="50.84784"
     inkscape:document-units="px"
     inkscape:current-layer="layer1"
     showgrid="false"
     inkscape:window-width="1920"
     inkscape:window-height="1033"
     inkscape:window-x="-4"
     inkscape:window-y="-4"
     inkscape:window-maximized="1" />
  <metadata
     id="metadata3842">
    <rdf:RDF>
      <cc:Work
         rdf:about="">
        <dc:format>image/svg+xml</dc:format>
        <dc:type
           rdf:resource="http://purl.org/dc/dcmitype/StillImage" />
        <dc:title />
      </cc:Work>
    </rdf:RDF>
  </metadata>
  <g
     inkscape:label="Layer 1"
     inkscape:groupmode="layer"
     id="layer1"
     transform="translate(0,-938.36218)">
    <rect
       style="fill:#b37235;fill-opacity:1;stroke:none"
       id="rect2985"
       width="56"
       height="114"
       x="0"
       y="938.36218"
       ry="5"
       rx="5" />
    <path
       sodipodi:type="arc"
       style="fill:#f79d49;fill-opacity:1;stroke:none"
       id="path3759-1-7"
       sodipodi:cx="170.17857"
       sodipodi:cy="358.96933"
       sodipodi:rx="15.892858"
       sodipodi:ry="15.892858"
       d="m 186.07143,358.96933 c 0,8.77738 -7.11547,15.89286 -15.89286,15.89286 -8.77738,0 -15.89285,-7.11548 -15.89285,-15.89286 0,-8.77738 7.11547,-15.89286 15.89285,-15.89286 8.77739,0 15.89286,7.11548 15.89286,15.89286 z"
       transform="matrix(1.2269663,0,0,1.2269663,-180.80337,554.91891)" />
    <g
       transform="scale(1.0061256,0.99391169)"
       style="font-size:26.75815582px;font-style:normal;font-weight:normal;line-height:125%;letter-spacing:0px;word-spacing:0px;fill:#9b4d05;fill-opacity:1;stroke:none;font-family:Sans"
       id="text3887">
      <path
         d="m 27.802581,998.81037 c 0.535133,-0.10723 1.043598,-0.16085 1.525397,-0.16087 1.498168,2e-5 2.773686,0.5798 3.82656,1.7394 1.088234,1.1775 1.632357,2.6403 1.632372,4.3883 -1.5e-5,1.8553 -0.678059,3.4341 -2.034136,4.7363 -1.373522,1.3381 -3.076936,2.0072 -5.110246,2.0072 -1.944588,0 -3.559265,-0.6424 -4.844036,-1.9272 -1.284232,-1.2842 -1.926346,-2.9343 -1.926346,-4.9502 0,-2.6937 1.507431,-5.91348 4.522299,-9.65949 1.92661,-2.39042 3.353743,-3.58564 4.281402,-3.58566 0.553097,2e-5 1.034615,0.18729 1.444555,0.56182 0.428429,0.39252 0.642648,0.85635 0.64266,1.39147 -1.2e-5,0.51774 -0.410486,1.24043 -1.231424,2.16806 l -1.283686,1.41761 c -0.53515,0.6424 -1.01694,1.26682 -1.445371,1.87326 z m -2.435084,6.04773 c -5e-6,0.7311 0.24089,1.3552 0.722686,1.8724 0.481784,0.5177 1.061565,0.7766 1.739345,0.7766 0.677765,0 1.257546,-0.2589 1.739346,-0.7766 0.48178,-0.5172 0.722675,-1.1413 0.722685,-1.8724 -10e-6,-0.7317 -0.240905,-1.3471 -0.722685,-1.8463 -0.4818,-0.4998 -1.061581,-0.7497 -1.739346,-0.7497 -0.67778,0 -1.257561,0.2499 -1.739345,0.7497 -0.481796,0.4992 -0.722691,1.1146 -0.722686,1.8463 z"
         style="font-variant:normal;font-weight:bold;font-stretch:normal;fill:#9b4d05;font-family:Nokia Sans S60;-inkscape-font-specification:Nokia Sans S60 Bold"
         id="path2987" />
    </g>
  </g>
</svg>
