<?xml version="1.0" encoding="UTF-8" standalone="no"?>
<!-- Created with Inkscape (http://www.inkscape.org/) -->

<svg
   xmlns:dc="http://purl.org/dc/elements/1.1/"
   xmlns:cc="http://creativecommons.org/ns#"
   xmlns:rdf="http://www.w3.org/1999/02/22-rdf-syntax-ns#"
   xmlns:svg="http://www.w3.org/2000/svg"
   xmlns="http://www.w3.org/2000/svg"
   xmlns:sodipodi="http://sodipodi.sourceforge.net/DTD/sodipodi-0.dtd"
   xmlns:inkscape="http://www.inkscape.org/namespaces/inkscape"
   width="56"
   height="114"
   id="svg3837"
   version="1.1"
   inkscape:version="0.48.5 r10040"
   sodipodi:docname="bone_03_01.svg">
  <defs
     id="defs3839" />
  <sodipodi:namedview
     id="base"
     pagecolor="#ffffff"
     bordercolor="#666666"
     borderopacity="1.0"
     inkscape:pageopacity="0.0"
     inkscape:pageshadow="2"
     inkscape:zoom="5.6"
     inkscape:cx="-10.149084"
     inkscape:cy="50.84784"
     inkscape:document-units="px"
     inkscape:current-layer="layer1"
     showgrid="false"
     inkscape:window-width="1920"
     inkscape:window-height="1033"
     inkscape:window-x="-4"
     inkscape:window-y="-4"
     inkscape:window-maximized="1" />
  <metadata
     id="metadata3842">
    <rdf:RDF>
      <cc:Work
         rdf:about="">
        <dc:format>image/svg+xml</dc:format>
        <dc:type
           rdf:resource="http://purl.org/dc/dcmitype/StillImage" />
        <dc:title />
      </cc:Work>
    </rdf:RDF>
  </metadata>
  <g
     inkscape:label="Layer 1"
     inkscape:groupmode="layer"
     id="layer1"
     transform="translate(0,-938.36218)">
    <rect
       style="fill:#b37235;fill-opacity:1;stroke:none"
       id="rect2985"
       width="56"
       height="114"
       x="0"
       y="938.36218"
       ry="5"
       rx="5" />
    <path
       sodipodi:type="arc"
       style="fill:#f79d49;fill-opacity:1;stroke:none"
       id="path3759-1-7"
       sodipodi:cx="170.17857"
       sodipodi:cy="358.96933"
       sodipodi:rx="15.892858"
       sodipodi:ry="15.892858"
       d="m 186.07143,358.96933 c 0,8.77738 -7.11547,15.89286 -15.89286,15.89286 -8.77738,0 -15.89285,-7.11548 -15.89285,-15.89286 0,-8.77738 7.11547,-15.89286 15.89285,-15.89286 8.77739,0 15.89286,7.11548 15.89286,15.89286 z"
       transform="matrix(1.2269663,0,0,1.2269663,-180.80337,554.91891)" />
    <g
       transform="scale(1.0061256,0.99391169)"
       style="font-size:26.75815582px;font-style:normal;font-weight:normal;line-height:125%;letter-spacing:0px;word-spacing:0px;fill:#9b4d05;fill-opacity:1;stroke:none;font-family:Sans"
       id="text3887">
      <path
         d="m 27.815645,991.85294 c 1.641346,2e-5 3.006145,0.48181 4.094403,1.44537 1.070271,0.96305 1.605411,2.13133 1.605424,3.50482 -1.3e-5,1.48077 -0.722426,2.72962 -2.167241,3.74657 2.140553,1.0523 3.210835,2.5954 3.210848,4.6292 -1.3e-5,1.6588 -0.642128,3.0503 -1.926345,4.1745 -1.302206,1.1416 -2.943559,1.7124 -4.924063,1.7124 -1.69471,0 -3.237799,-0.5531 -4.629272,-1.6594 -1.319617,-1.0523 -1.979424,-2.1762 -1.979424,-3.3717 0,-1.3196 0.633132,-1.9794 1.899398,-1.9794 0.481788,0 0.918938,0.1693 1.31145,0.5079 0.160593,0.1252 0.32119,0.2948 0.481791,0.5088 l 0.454843,0.5887 c 0.392504,0.4992 0.731391,0.8648 1.016659,1.0967 0.42789,0.3212 0.927373,0.4818 1.49845,0.4818 1.5341,0 2.301153,-0.776 2.301163,-2.3281 -10e-6,-1.1416 -0.918677,-1.855 -2.756006,-2.1403 -1.212919,-0.1965 -1.819376,-0.812 -1.819371,-1.8463 -5e-6,-0.94562 0.606452,-1.55235 1.819371,-1.8202 1.337574,-0.30322 2.006364,-0.92737 2.006372,-1.87245 -8e-6,-1.03489 -0.526166,-1.55233 -1.578476,-1.55235 -0.427902,2e-5 -0.829121,0.12495 -1.20366,0.37482 -0.143182,0.0713 -0.295068,0.18728 -0.455659,0.34787 -0.07132,0.0534 -0.142637,0.12468 -0.213948,0.21394 l -0.454843,0.40177 c -0.07132,0.0887 -0.142636,0.16006 -0.213948,0.21395 -0.160601,0.14264 -0.321197,0.2586 -0.48179,0.34786 -0.392513,0.23193 -0.811698,0.34789 -1.257555,0.34787 -1.194951,2e-5 -1.792425,-0.57976 -1.792424,-1.73934 -10e-7,-1.05285 0.606456,-2.02514 1.819371,-2.91688 1.266262,-0.94559 2.711088,-1.4184 4.334482,-1.41842 z"
         style="font-variant:normal;font-weight:bold;font-stretch:normal;fill:#9b4d05;font-family:Nokia Sans S60;-inkscape-font-specification:Nokia Sans S60 Bold"
         id="path2987" />
    </g>
  </g>
</svg>
