<?xml version="1.0" encoding="UTF-8" standalone="no"?>
<!-- Created with Inkscape (http://www.inkscape.org/) -->

<svg
   xmlns:dc="http://purl.org/dc/elements/1.1/"
   xmlns:cc="http://creativecommons.org/ns#"
   xmlns:rdf="http://www.w3.org/1999/02/22-rdf-syntax-ns#"
   xmlns:svg="http://www.w3.org/2000/svg"
   xmlns="http://www.w3.org/2000/svg"
   xmlns:sodipodi="http://sodipodi.sourceforge.net/DTD/sodipodi-0.dtd"
   xmlns:inkscape="http://www.inkscape.org/namespaces/inkscape"
   width="44"
   height="44"
   id="svg2"
   version="1.1"
   inkscape:version="0.48.5 r10040"
   sodipodi:docname="btn_next_01.svg">
  <defs
     id="defs4" />
  <sodipodi:namedview
     id="base"
     pagecolor="#ffffff"
     bordercolor="#666666"
     borderopacity="1.0"
     inkscape:pageopacity="0.0"
     inkscape:pageshadow="2"
     inkscape:zoom="5.6"
     inkscape:cx="16.326707"
     inkscape:cy="15.617606"
     inkscape:document-units="px"
     inkscape:current-layer="layer1"
     showgrid="false"
     showguides="true"
     inkscape:guide-bbox="true"
     inkscape:window-width="1920"
     inkscape:window-height="1033"
     inkscape:window-x="-4"
     inkscape:window-y="-4"
     inkscape:window-maximized="1" />
  <metadata
     id="metadata7">
    <rdf:RDF>
      <cc:Work
         rdf:about="">
        <dc:format>image/svg+xml</dc:format>
        <dc:type
           rdf:resource="http://purl.org/dc/dcmitype/StillImage" />
        <dc:title></dc:title>
      </cc:Work>
    </rdf:RDF>
  </metadata>
  <g
     inkscape:label="Layer 1"
     inkscape:groupmode="layer"
     id="layer1"
     transform="translate(0,-1008.3622)">
    <path
       sodipodi:type="arc"
       style="fill:#f7b578;fill-opacity:1;fill-rule:evenodd;stroke:#a66000;stroke-width:13.4436245;stroke-linecap:butt;stroke-linejoin:miter;stroke-miterlimit:4;stroke-opacity:1;stroke-dasharray:none"
       id="path2985"
       sodipodi:cx="372.85715"
       sodipodi:cy="413.79074"
       sodipodi:rx="141.42857"
       sodipodi:ry="141.42857"
       d="m 514.28572,413.79074 a 141.42857,141.42857 0 1 1 -282.85715,0 141.42857,141.42857 0 1 1 282.85715,0 z"
       transform="matrix(0.14849776,0,0,0.14849776,-33.368451,968.9152)" />
    <path
       inkscape:connector-curvature="0"
       d="m 27.127965,1035.7936 c -2.476604,2.6557 -6.456802,3.152 -9.466784,1.4142 -3.676607,-2.1227 -4.936451,-6.8258 -2.814105,-10.502 2.122746,-3.6758 6.825819,-4.9364 10.502027,-2.8141 2.494555,1.4406 3.876474,4.1067 3.836581,6.8063 l -2.542827,-3.379 c -0.323139,-0.4297 -0.9387,-0.5159 -1.367956,-0.1927 l -0.267687,0.2022 c -0.429257,0.3228 -0.516624,0.9383 -0.192687,1.3676 l 3.031525,4.0285 1.66676,2.2153 c 0.323539,0.4292 0.938301,0.5154 1.367558,0.1927 l 2.215299,-1.668 4.027672,-3.0319 c 0.429256,-0.324 0.516225,-0.9387 0.192687,-1.368 l -0.201464,-0.2685 c -0.323937,-0.4292 -0.9387,-0.5166 -1.367956,-0.1934 l -3.171153,2.3884 c 0.141223,-3.9706 -1.860245,-7.9261 -5.52648,-10.0429 -5.301878,-3.061 -12.084212,-1.2431 -15.145259,4.0584 -3.0610469,5.3011 -1.243886,12.0842 4.057991,15.1453 4.34004,2.5053 10.079951,1.79 13.651638,-2.041 -0.828194,-0.7723 0,0 -2.48538,-2.3174 z"
       style="fill:#b37235;fill-rule:evenodd;stroke:#a66000;stroke-width:1.35359454;stroke-linecap:round;stroke-linejoin:round;stroke-dasharray:none"
       id="path8-7" />
  </g>
</svg>
