<?xml version="1.0" encoding="UTF-8" standalone="no"?>
<!-- Created with Inkscape (http://www.inkscape.org/) -->

<svg
   xmlns:dc="http://purl.org/dc/elements/1.1/"
   xmlns:cc="http://creativecommons.org/ns#"
   xmlns:rdf="http://www.w3.org/1999/02/22-rdf-syntax-ns#"
   xmlns:svg="http://www.w3.org/2000/svg"
   xmlns="http://www.w3.org/2000/svg"
   xmlns:sodipodi="http://sodipodi.sourceforge.net/DTD/sodipodi-0.dtd"
   xmlns:inkscape="http://www.inkscape.org/namespaces/inkscape"
   width="44"
   height="44"
   id="svg2"
   version="1.1"
   inkscape:version="0.48.5 r10040"
   sodipodi:docname="btn_next_01.svg">
  <defs
     id="defs4" />
  <sodipodi:namedview
     id="base"
     pagecolor="#ffffff"
     bordercolor="#666666"
     borderopacity="1.0"
     inkscape:pageopacity="0.0"
     inkscape:pageshadow="2"
     inkscape:zoom="5.6"
     inkscape:cx="14.261753"
     inkscape:cy="24.624498"
     inkscape:document-units="px"
     inkscape:current-layer="layer1"
     showgrid="false"
     showguides="true"
     inkscape:guide-bbox="true"
     inkscape:window-width="1920"
     inkscape:window-height="1033"
     inkscape:window-x="-4"
     inkscape:window-y="-4"
     inkscape:window-maximized="1" />
  <metadata
     id="metadata7">
    <rdf:RDF>
      <cc:Work
         rdf:about="">
        <dc:format>image/svg+xml</dc:format>
        <dc:type
           rdf:resource="http://purl.org/dc/dcmitype/StillImage" />
        <dc:title></dc:title>
      </cc:Work>
    </rdf:RDF>
  </metadata>
  <g
     inkscape:label="Layer 1"
     inkscape:groupmode="layer"
     id="layer1"
     transform="translate(0,-1008.3622)">
    <g
       id="g4"
       transform="matrix(4.1712883,0,0,4.1712883,-0.02419366,1008.338)">
      <path
         id="path6"
         style="fill:#ffffff;fill-rule:evenodd"
         d="m 5.28,0.0058 c 2.9127,0 5.2741,2.3614 5.2741,5.2742 0,2.9127 -2.3614,5.2741 -5.2741,5.2741 -2.9128,0 -5.2742,-2.3614 -5.2742,-5.2741 0,-2.9128 2.3614,-5.2742 5.2742,-5.2742 z"
         inkscape:connector-curvature="0" />
      <path
         id="path8-1"
         style="fill:#af2735;fill-rule:evenodd"
         d="M 8.4742,3.7584 9.9919,2.9086 C 9.8959,2.7184 9.7888,2.5349 9.6715,2.3587 l -2.4999,1.3997 1.3026,0 z"
         inkscape:connector-curvature="0" />
      <path
         id="path10"
         style="fill:#af2735;fill-rule:evenodd"
         d="M 8.1797,7.022 9.8311,7.9461 C 9.9382,7.7637 10.0347,7.5743 10.1196,7.3786 L 9.4823,7.022 l -1.3026,0 z"
         inkscape:connector-curvature="0" />
      <path
         id="path12"
         style="fill:#af2735;fill-rule:evenodd"
         d="m 0.4346,3.1943 1.0027,0.5641 1.3026,0 L 0.7223,2.6247 C 0.6154,2.8079 0.5192,2.998 0.4346,3.1943 z"
         inkscape:connector-curvature="0" />
      <path
         id="path14"
         style="fill:#af2735;fill-rule:evenodd"
         d="m 2.4455,7.022 -1.7,0.9526 c 0.1094,0.1835 0.2296,0.3599 0.3597,0.5282 l 2.6427,-1.4808 -1.3024,0 z"
         inkscape:connector-curvature="0" />
      <path
         id="path16"
         style="fill:#332f6e;fill-rule:evenodd"
         d="m 6.8143,0.2328 0,3.2475 2.6102,-1.4624 C 8.7653,1.1816 7.8583,0.5497 6.8143,0.2328 z"
         inkscape:connector-curvature="0" />
      <path
         id="path18"
         style="fill:#332f6e;fill-rule:evenodd"
         d="m 1.1874,1.9533 2.7145,1.527 0,-3.2922 C 2.8197,0.4803 1.8752,1.1081 1.1874,1.9533 z"
         inkscape:connector-curvature="0" />
      <path
         id="path20"
         style="fill:#332f6e;fill-rule:evenodd"
         d="m 10.3154,3.7069 -0.0913,0.0515 0.1068,0 -0.0155,-0.0515 z"
         inkscape:connector-curvature="0" />
      <path
         id="path22"
         style="fill:#332f6e;fill-rule:evenodd"
         d="m 10.2593,7.022 -0.0352,0 0.0294,0.0164 0.0058,-0.0164 z"
         inkscape:connector-curvature="0" />
      <path
         id="path24"
         style="fill:#332f6e;fill-rule:evenodd"
         d="m 3.9019,10.3718 0,-3.0717 -2.5908,1.453 c 0.6755,0.7711 1.572,1.3436 2.5908,1.6187 z"
         inkscape:connector-curvature="0" />
      <path
         id="path26"
         style="fill:#332f6e;fill-rule:evenodd"
         d="m 9.3022,8.691 -2.4879,-1.3909 0,3.027 C 7.7952,10.0292 8.6551,9.4533 9.3022,8.691 z"
         inkscape:connector-curvature="0" />
      <path
         id="path28"
         style="fill:#332f6e;fill-rule:evenodd"
         d="m 0.3327,7.1115 0.1591,-0.0895 -0.1911,0 c 0.0104,0.0299 0.0211,0.0598 0.032,0.0895 z"
         inkscape:connector-curvature="0" />
      <path
         id="path30"
         style="fill:#332f6e;fill-rule:evenodd"
         d="m 0.229,3.7584 0.2628,0 L 0.2686,3.6326 C 0.2549,3.6743 0.2417,3.7162 0.229,3.7584 z"
         inkscape:connector-curvature="0" />
      <path
         id="path32"
         style="fill:#af2735;fill-rule:evenodd"
         d="m 4.4841,0.0656 0,4.348 -4.4071,0 C 0.0305,4.6955 0.0058,4.9848 0.0058,5.28 c 0,0.3737 0.0392,0.7382 0.1131,1.09 l 4.3652,0 0,4.1243 c 0.2596,0.0392 0.5253,0.0598 0.7959,0.0598 0.3249,0 0.643,-0.0295 0.9517,-0.0858 l 0,-4.0983 4.2093,0 c 0.074,-0.3518 0.1131,-0.7163 0.1131,-1.09 0,-0.2952 -0.0246,-0.5844 -0.0712,-0.8664 l -4.2512,0 0,-4.322 C 5.923,0.0353 5.6049,0.0058 5.28,0.0058 c -0.2706,0 -0.5363,0.0206 -0.7959,0.0598 z"
         inkscape:connector-curvature="0" />
    </g>
  </g>
</svg>
