<?xml version="1.0" encoding="UTF-8" standalone="no"?>
<svg
   xmlns:dc="http://purl.org/dc/elements/1.1/"
   xmlns:cc="http://creativecommons.org/ns#"
   xmlns:rdf="http://www.w3.org/1999/02/22-rdf-syntax-ns#"
   xmlns:svg="http://www.w3.org/2000/svg"
   xmlns="http://www.w3.org/2000/svg"
   viewBox="0 0 31 33.000099"
   id="svg2"
   height="33.000099"
   width="31"
   version="1.1">
  <metadata
     id="metadata20">
    <rdf:RDF>
      <cc:Work
         rdf:about="">
        <dc:format>image/svg+xml</dc:format>
        <dc:type
           rdf:resource="http://purl.org/dc/dcmitype/StillImage" />
      </cc:Work>
    </rdf:RDF>
  </metadata>
  <defs
     id="defs18" />
  <g
     id="g4">
    <path
       id="path6"
       style="fill:#a66000;fill-rule:evenodd"
       d="m 14.1192,0.4662 c 2.6239,-0.9981 5.9843,-0.2817 8.3479,1.1139 2.3461,1.3861 4.642,4.0055 5.1135,6.8326 3.0605,4.2228 4.6992,9.6489 2.1955,14.0842 -1.3901,2.4642 -3.6078,3.7357 -6.1325,4.2061 -5.068,4.5176 -10.9613,8.7105 -17.8221,4.6597 C -1.0709,27.2915 -0.1477,20.1426 0.7523,13.4879 -0.2492,10.8984 -0.3613,8.1536 1.1013,5.5629 3.6038,1.1288 9.015,-0.1331 14.1192,0.4662 Z" />
    <g
       id="g8">
      <path
         id="path10"
         style="fill:#9b4d05;fill-rule:evenodd"
         d="m 11.6746,20.9957 c 7.2771,4.2974 14.3371,0.8574 11.3842,3.5402 -2.9256,2.658 -9.2831,9.1901 -16.2482,5.077 C -0.1545,25.4997 2.408,16.1478 2.9168,12.2121 3.458,8.026 4.3328,16.66 11.6746,20.9957 Z" />
      <path
         id="path12"
         style="fill:#f7b578;fill-rule:evenodd"
         d="m 20.7258,4.6638 c 6.9735,4.1182 9.8106,12.4458 7.3398,16.8231 -2.4708,4.3773 -10.1269,4.5875 -17.1005,0.4693 C 3.9916,17.8381 0.3415,10.951 2.8123,6.5737 5.2831,2.1964 13.7523,0.5457 20.7258,4.6638 Z" />
      <path
         id="path14"
         style="fill:#ef7a0f;fill-rule:evenodd"
         d="m 21.4783,3.3307 a 5.006,7.1716 -58.3703 0 1 3.7124,8.0071 5.006,7.1716 -58.3703 1 1 -3.7124,-8.0071 z" />
    </g>
  </g>
</svg>
