<?xml version="1.0" encoding="UTF-8" standalone="no"?>
<svg
   xmlns:dc="http://purl.org/dc/elements/1.1/"
   xmlns:cc="http://creativecommons.org/ns#"
   xmlns:rdf="http://www.w3.org/1999/02/22-rdf-syntax-ns#"
   xmlns:svg="http://www.w3.org/2000/svg"
   xmlns="http://www.w3.org/2000/svg"
   viewBox="0 0 43.999901 50"
   id="svg2"
   height="50"
   width="43.999901"
   version="1.1">
  <metadata
     id="metadata24">
    <rdf:RDF>
      <cc:Work
         rdf:about="">
        <dc:format>image/svg+xml</dc:format>
        <dc:type
           rdf:resource="http://purl.org/dc/dcmitype/StillImage" />
      </cc:Work>
    </rdf:RDF>
  </metadata>
  <defs
     id="defs22" />
  <g
     id="g4">
    <path
       id="path6"
       style="fill:#9b4d05;fill-rule:evenodd"
       d="M 22.0007,6.4888 A 22.0002,21.7557 0 0 1 44.0009,28.2445 22.0002,21.7557 0 1 1 22.0007,6.4888 Z" />
    <path
       id="path8"
       style="fill:#ef7a0f;fill-rule:evenodd"
       d="M 22.0007,9.2083 A 19.2502,19.0362 0 0 1 41.2509,28.2445 19.2502,19.0362 0 1 1 22.0007,9.2083 Z" />
    <path
       id="path10"
       style="fill:#f79d49;fill-rule:evenodd"
       d="M 22.0007,14.6472 A 13.7501,13.5973 0 0 1 35.7508,28.2445 13.7501,13.5973 0 1 1 22.0007,14.6472 Z" />
    <g
       id="g12">
      <path
         id="path14"
         style="fill:#9b4d05;fill-rule:evenodd"
         d="m 22.3931,25.6336 c 10.9684,0 16.7542,-8.3162 15.128,-3.4784 -1.6113,4.7932 -4.63,16.0353 -15.128,16.0353 -10.4981,0 -13.5685,-11.8745 -15.5046,-16.5042 -2.0593,-4.9242 4.4387,3.9473 15.5046,3.9473 z" />
      <path
         id="path16"
         style="fill:#f7b578;fill-rule:evenodd"
         d="m 22.204,1.9429 c 10.5107,0 19.0314,7.2702 19.0314,13.6488 0,6.3785 -8.5206,11.5496 -19.0314,11.5496 -10.5107,0 -19.0314,-5.1711 -19.0314,-11.5496 0,-6.3786 8.5207,-13.6488 19.0314,-13.6488 z" />
      <path
         id="path18"
         style="fill:#ef7a0f;fill-rule:evenodd"
         d="M 22.2039,2e-4 A 9.3058,6.355 0 0 1 31.5097,6.3552 9.3058,6.355 0 1 1 22.2039,2e-4 Z" />
    </g>
  </g>
</svg>
